SEMESTRE_6/DISEÑO_SISTEMAS_DIGITALES/TEORIA/MAQUINA_ESTADOS/simulation/qsim/SM_CONTADOR.msim.vcd
$comment
	File created using the following command:
		vcd file SM_CONTADOR.msim.vcd -direction
$end
$date
	Wed Mar 13 09:39:56 2024
$end
$version
	ModelSim Version 10.1d
$end
$timescale
	1ps
$end
$scope module SM_CONTADOR_vlg_vec_tst $end
$var reg 1 ! clock $end
$var reg 1 " input1 $end
$var reg 1 # reset $end
$var wire 1 $ output1 $end
$var wire 1 % output2 $end
$var wire 1 & output3 $end
$var wire 1 ' sampler $end
$scope module i1 $end
$var wire 1 ( gnd $end
$var wire 1 ) vcc $end
$var wire 1 * unknown $end
$var tri1 1 + devclrn $end
$var tri1 1 , devpor $end
$var tri1 1 - devoe $end
$var wire 1 . output1~output_o $end
$var wire 1 / output2~output_o $end
$var wire 1 0 output3~output_o $end
$var wire 1 1 clock~input_o $end
$var wire 1 2 clock~inputclkctrl_outclk $end
$var wire 1 3 reset~input_o $end
$var wire 1 4 input1~input_o $end
$var wire 1 5 reg_fstate.state2~0_combout $end
$var wire 1 6 fstate.state2~q $end
$var wire 1 7 reg_fstate.state1~0_combout $end
$var wire 1 8 fstate.state1~q $end
$var wire 1 9 reg_fstate.state8~0_combout $end
$var wire 1 : fstate.state8~q $end
$var wire 1 ; reg_fstate.state7~0_combout $end
$var wire 1 < fstate.state7~q $end
$var wire 1 = reg_fstate.state6~0_combout $end
$var wire 1 > fstate.state6~q $end
$var wire 1 ? reg_fstate.state5~0_combout $end
$var wire 1 @ fstate.state5~q $end
$var wire 1 A reg_fstate.state4~0_combout $end
$var wire 1 B fstate.state4~q $end
$var wire 1 C reg_fstate.state3~0_combout $end
$var wire 1 D fstate.state3~q $end
$var wire 1 E output2~0_combout $end
$var wire 1 F output1~0_combout $end
$var wire 1 G output2~1_combout $end
$var wire 1 H output3~0_combout $end
$upscope $end
$upscope $end
$enddefinitions $end
#0
$dumpvars
0!
1"
0#
0$
0%
0&
x'
0(
1)
x*
1+
1,
1-
0.
0/
00
01
02
03
14
15
06
17
08
09
0:
0;
0<
0=
0>
0?
0@
0A
0B
0C
0D
0E
0F
0G
0H
$end
#5000
1!
11
12
0'
18
16
1E
05
1C
1H
10
1&
#10000
0!
01
02
1'
#15000
1!
11
12
0'
1D
06
1A
0C
0H
1G
00
1/
0&
1%
#20000
0!
01
02
1'
#25000
1!
11
12
0'
0D
1B
0A
1?
1H
10
1&
#30000
0!
01
02
1'
#35000
1!
11
12
0'
0B
1@
0?
1=
1F
0H
0G
1.
00
0/
1$
0&
0%
#40000
0!
01
02
1'
#45000
1!
11
12
0'
0@
1>
0=
1;
1H
10
1&
#50000
0!
01
02
1'
#55000
1!
11
12
0'
0>
1<
0;
19
1G
0H
1/
00
1%
0&
#60000
0!
01
02
1'
#65000
1!
11
12
0'
0<
1:
09
07
1H
10
1&
#70000
0!
01
02
1'
#75000
1!
11
12
0'
0:
08
17
0E
15
0H
0G
0F
00
0/
0.
0&
0%
0$
#80000
0!
01
02
1'
#85000
1!
11
12
0'
18
16
1E
05
1C
1H
10
1&
#90000
0!
01
02
1'
#95000
1!
11
12
0'
1D
06
1A
0C
0H
1G
00
1/
0&
1%
#100000
0!
01
02
1'
#105000
1!
11
12
0'
0D
1B
0A
1?
1H
10
1&
#110000
0!
01
02
1'
#115000
1!
11
12
0'
0B
1@
0?
1=
1F
0H
0G
1.
00
0/
1$
0&
0%
#120000
0!
01
02
1'
#125000
1!
11
12
0'
0@
1>
0=
1;
1H
10
1&
#130000
0!
01
02
1'
#135000
1!
11
12
0'
0>
1<
0;
19
1G
0H
1/
00
1%
0&
#140000
0!
01
02
1'
#145000
1!
11
12
0'
0<
1:
09
07
1H
10
1&
#150000
0!
01
02
1'
#155000
1!
11
12
0'
0:
08
17
0E
15
0H
0G
0F
00
0/
0.
0&
0%
0$
#160000
0!
01
02
1'
#165000
1!
11
12
0'
18
16
1E
05
1C
1H
10
1&
#170000
0!
01
02
1'
#175000
1!
11
12
0'
1D
06
1A
0C
0H
1G
00
1/
0&
1%
#180000
0!
01
02
1'
#185000
1!
11
12
0'
0D
1B
0A
1?
1H
10
1&
#190000
0!
01
02
1'
#195000
1!
11
12
0'
0B
1@
0?
1=
1F
0H
0G
1.
00
0/
1$
0&
0%
#200000
0!
01
02
1'
#205000
1!
11
12
0'
0@
1>
0=
1;
1H
10
1&
#210000
0!
01
02
1'
#215000
1!
11
12
0'
0>
1<
0;
19
1G
0H
1/
00
1%
0&
#220000
0!
01
02
1'
#225000
1!
11
12
0'
0<
1:
09
07
1H
10
1&
#230000
0!
01
02
1'
#235000
1!
11
12
0'
0:
08
17
0E
15
0H
0G
0F
00
0/
0.
0&
0%
0$
#240000
0!
01
02
1'
#245000
1!
11
12
0'
18
16
1E
05
1C
1H
10
1&
#250000
0!
01
02
1'
#255000
1!
11
12
0'
1D
06
1A
0C
0H
1G
00
1/
0&
1%
#260000
0!
01
02
1'
#265000
1!
11
12
0'
0D
1B
0A
1?
1H
10
1&
#270000
0!
01
02
1'
#275000
1!
11
12
0'
0B
1@
0?
1=
1F
0H
0G
1.
00
0/
1$
0&
0%
#280000
0!
01
02
1'
#285000
1!
11
12
0'
0@
1>
0=
1;
1H
10
1&
#290000
0!
01
02
1'
#295000
1!
11
12
0'
0>
1<
0;
19
1G
0H
1/
00
1%
0&
#300000
0!
01
02
1'
#305000
1!
11
12
0'
0<
1:
09
07
1H
10
1&
#310000
0!
01
02
1'
#315000
1!
11
12
0'
0:
08
17
0E
15
0H
0G
0F
00
0/
0.
0&
0%
0$
#320000
0!
01
02
1'
#325000
1!
11
12
0'
18
16
1E
05
1C
1H
10
1&
#330000
0!
01
02
1'
#335000
1!
11
12
0'
1D
06
1A
0C
0H
1G
00
1/
0&
1%
#340000
0!
01
02
1'
#345000
1!
11
12
0'
0D
1B
0A
1?
1H
10
1&
#350000
0!
01
02
1'
#355000
1!
11
12
0'
0B
1@
0?
1=
1F
0H
0G
1.
00
0/
1$
0&
0%
#360000
0!
01
02
1'
#365000
1!
11
12
0'
0@
1>
0=
1;
1H
10
1&
#370000
0!
01
02
1'
#375000
1!
11
12
0'
0>
1<
0;
19
1G
0H
1/
00
1%
0&
#380000
0!
01
02
1'
#385000
1!
11
12
0'
0<
1:
09
07
1H
10
1&
#390000
0!
01
02
1'
#395000
1!
11
12
0'
0:
08
17
0E
15
0H
0G
0F
00
0/
0.
0&
0%
0$
#400000
0!
01
02
1'
#405000
1!
11
12
0'
18
16
1E
05
1C
1H
10
1&
#410000
0!
01
02
1'
#415000
1!
11
12
0'
1D
06
1A
0C
0H
1G
00
1/
0&
1%
#420000
0!
01
02
1'
#425000
1!
11
12
0'
0D
1B
0A
1?
1H
10
1&
#430000
0!
01
02
1'
#435000
1!
11
12
0'
0B
1@
0?
1=
1F
0H
0G
1.
00
0/
1$
0&
0%
#440000
0!
01
02
1'
#445000
1!
11
12
0'
0@
1>
0=
1;
1H
10
1&
#450000
0"
0!
04
01
02
1'
1?
0;
#455000
1!
11
12
0'
1@
0>
1A
0?
0H
00
0&
#460000
0!
01
02
1'
#465000
1!
11
12
0'
1B
0@
1C
0A
0F
1H
1G
0.
10
1/
0$
1&
1%
#470000
0!
01
02
1'
#475000
1!
11
12
0'
1D
0B
15
0C
0H
00
0&
#480000
0!
01
02
1'
#485000
1!
11
12
0'
0D
16
05
07
1H
0G
10
0/
1&
0%
#490000
0!
01
02
1'
#495000
1!
11
12
0'
08
06
0E
19
17
1G
1F
1/
1.
1%
1$
0H
0G
0F
00
0/
0.
0&
0%
0$
#500000
0!
01
02
1'
#505000
1!
11
12
0'
1:
18
1;
1E
09
1H
1G
1F
10
1/
1.
1&
1%
1$
#510000
0!
01
02
1'
#515000
1!
11
12
0'
1<
0:
1=
0;
0H
00
0&
#520000
0!
01
02
1'
#525000
1!
11
12
0'
1>
0<
1?
0=
0G
1H
0/
10
0%
1&
#530000
0!
01
02
1'
#535000
1!
11
12
0'
1@
0>
1A
0?
0H
00
0&
#540000
0!
01
02
1'
#545000
1!
11
12
0'
1B
0@
1C
0A
0F
1H
1G
0.
10
1/
0$
1&
1%
#550000
0!
01
02
1'
#555000
1!
11
12
0'
1D
0B
15
0C
0H
00
0&
#560000
0!
01
02
1'
#565000
1!
11
12
0'
0D
16
05
07
1H
0G
10
0/
1&
0%
#570000
0!
01
02
1'
#575000
1!
11
12
0'
08
06
0E
19
17
1G
1F
1/
1.
1%
1$
0H
0G
0F
00
0/
0.
0&
0%
0$
#580000
0!
01
02
1'
#585000
1!
11
12
0'
1:
18
1;
1E
09
1H
1G
1F
10
1/
1.
1&
1%
1$
#590000
0!
01
02
1'
#595000
1!
11
12
0'
1<
0:
1=
0;
0H
00
0&
#600000
0!
01
02
1'
#605000
1!
11
12
0'
1>
0<
1?
0=
0G
1H
0/
10
0%
1&
#610000
0!
01
02
1'
#615000
1!
11
12
0'
1@
0>
1A
0?
0H
00
0&
#620000
0!
01
02
1'
#625000
1!
11
12
0'
1B
0@
1C
0A
0F
1H
1G
0.
10
1/
0$
1&
1%
#630000
0!
01
02
1'
#635000
1!
11
12
0'
1D
0B
15
0C
0H
00
0&
#640000
0!
01
02
1'
#645000
1!
11
12
0'
0D
16
05
07
1H
0G
10
0/
1&
0%
#650000
0!
01
02
1'
#655000
1!
11
12
0'
08
06
0E
19
17
1G
1F
1/
1.
1%
1$
0H
0G
0F
00
0/
0.
0&
0%
0$
#660000
0!
01
02
1'
#665000
1!
11
12
0'
1:
18
1;
1E
09
1H
1G
1F
10
1/
1.
1&
1%
1$
#670000
0!
01
02
1'
#675000
1!
11
12
0'
1<
0:
1=
0;
0H
00
0&
#680000
0!
01
02
1'
#685000
1!
11
12
0'
1>
0<
1?
0=
0G
1H
0/
10
0%
1&
#690000
0!
01
02
1'
#695000
1!
11
12
0'
1@
0>
1A
0?
0H
00
0&
#700000
0!
01
02
1'
#705000
1!
11
12
0'
1B
0@
1C
0A
0F
1H
1G
0.
10
1/
0$
1&
1%
#710000
0!
01
02
1'
#715000
1!
11
12
0'
1D
0B
15
0C
0H
00
0&
#720000
0!
01
02
1'
#725000
1!
11
12
0'
0D
16
05
07
1H
0G
10
0/
1&
0%
#730000
0!
01
02
1'
#735000
1!
11
12
0'
08
06
0E
19
17
1G
1F
1/
1.
1%
1$
0H
0G
0F
00
0/
0.
0&
0%
0$
#740000
0!
01
02
1'
#745000
1!
11
12
0'
1:
18
1;
1E
09
1H
1G
1F
10
1/
1.
1&
1%
1$
#750000
0!
01
02
1'
#755000
1!
11
12
0'
1<
0:
1=
0;
0H
00
0&
#760000
0!
01
02
1'
#765000
1!
11
12
0'
1>
0<
1?
0=
0G
1H
0/
10
0%
1&
#770000
0!
01
02
1'
#775000
1!
11
12
0'
1@
0>
1A
0?
0H
00
0&
#780000
0!
01
02
1'
#785000
1!
11
12
0'
1B
0@
1C
0A
0F
1H
1G
0.
10
1/
0$
1&
1%
#790000
0!
01
02
1'
#795000
1!
11
12
0'
1D
0B
15
0C
0H
00
0&
#800000
0!
01
02
1'
#805000
1!
11
12
0'
0D
16
05
07
1H
0G
10
0/
1&
0%
#810000
0!
01
02
1'
#815000
1!
11
12
0'
08
06
0E
19
17
1G
1F
1/
1.
1%
1$
0H
0G
0F
00
0/
0.
0&
0%
0$
#820000
0!
01
02
1'
#825000
1!
11
12
0'
1:
18
1;
1E
09
1H
1G
1F
10
1/
1.
1&
1%
1$
#830000
0!
01
02
1'
#835000
1!
11
12
0'
1<
0:
1=
0;
0H
00
0&
#840000
0!
01
02
1'
#845000
1!
11
12
0'
1>
0<
1?
0=
0G
1H
0/
10
0%
1&
#850000
0!
01
02
1'
#855000
1!
11
12
0'
1@
0>
1A
0?
0H
00
0&
#860000
0!
01
02
1'
#865000
1!
11
12
0'
1B
0@
1C
0A
0F
1H
1G
0.
10
1/
0$
1&
1%
#870000
0!
01
02
1'
#875000
1!
11
12
0'
1D
0B
15
0C
0H
00
0&
#880000
0!
01
02
1'
#885000
1!
11
12
0'
0D
16
05
07
1H
0G
10
0/
1&
0%
#890000
0!
01
02
1'
#895000
1!
11
12
0'
08
06
0E
19
17
1G
1F
1/
1.
1%
1$
0H
0G
0F
00
0/
0.
0&
0%
0$
#900000
0!
01
02
1'
#905000
1!
11
12
0'
1:
18
1;
1E
09
1H
1G
1F
10
1/
1.
1&
1%
1$
#910000
0!
01
02
1'
#915000
1!
11
12
0'
1<
0:
1=
0;
0H
00
0&
#920000
0!
01
02
1'
#925000
1!
11
12
0'
1>
0<
1?
0=
0G
1H
0/
10
0%
1&
#930000
0!
01
02
1'
#935000
1!
11
12
0'
1@
0>
1A
0?
0H
00
0&
#940000
0!
01
02
1'
#945000
1!
11
12
0'
1B
0@
1C
0A
0F
1H
1G
0.
10
1/
0$
1&
1%
#950000
0!
01
02
1'
#955000
1!
11
12
0'
1D
0B
15
0C
0H
00
0&
#960000
0!
01
02
1'
#965000
1!
11
12
0'
0D
16
05
07
1H
0G
10
0/
1&
0%
#970000
0!
01
02
1'
#975000
1!
11
12
0'
08
06
0E
19
17
1G
1F
1/
1.
1%
1$
0H
0G
0F
00
0/
0.
0&
0%
0$
#980000
0!
01
02
1'
#985000
1!
11
12
0'
1:
18
1;
1E
09
1H
1G
1F
10
1/
1.
1&
1%
1$
#990000
0!
01
02
1'
#995000
1!
11
12
0'
1<
0:
1=
0;
0H
00
0&
