SEMESTRE_6/DISEÑO_SISTEMAS_DIGITALES/LABORATORIO/Practica_2/simulation/qsim/Practica_2.msim.vcd
$comment
	File created using the following command:
		vcd file Practica_2.msim.vcd -direction
$end
$date
	Mon Mar 11 22:56:28 2024
$end
$version
	ModelSim Version 10.1d
$end
$timescale
	1ps
$end
$scope module Practica_2_vlg_vec_tst $end
$var reg 1 ! C $end
$var reg 1 " E $end
$var reg 1 # S $end
$var wire 1 $ A $end
$var wire 1 % R $end
$var wire 1 & V $end
$var wire 1 ' sampler $end
$scope module i1 $end
$var wire 1 ( gnd $end
$var wire 1 ) vcc $end
$var wire 1 * unknown $end
$var tri1 1 + devclrn $end
$var tri1 1 , devpor $end
$var tri1 1 - devoe $end
$var wire 1 . S~combout $end
$var wire 1 / E~combout $end
$var wire 1 0 A~0_combout $end
$var wire 1 1 C~combout $end
$var wire 1 2 V~0_combout $end
$upscope $end
$upscope $end
$enddefinitions $end
#0
$dumpvars
0!
0"
0#
0$
0%
0&
x'
0(
1)
x*
1+
1,
1-
0.
0/
00
01
02
$end
#10000
1#
1.
0'
1%
#60000
1"
0#
1/
0.
1'
10
0%
1$
#110000
1!
0"
11
0/
0'
12
00
1&
0$
#170000
0!
01
1'
02
0&
#190000
1#
1"
1.
1/
0'
1%
#230000
0#
0"
0.
0/
1'
0%
#240000
1!
1"
11
1/
0'
10
1$
#290000
0!
0"
01
0/
1'
00
0$
#300000
1#
1!
1.
11
0'
1%
#360000
0#
0!
0.
01
1'
0%
#370000
1"
1#
1!
1/
1.
11
0'
1%
#460000
0"
0#
0!
0/
0.
01
1'
0%
